…
rxSolve(model, et)
#>  
#>  
#> ℹ parameter labels from comments are typically ignored in non-interactive mode
#> ℹ Need to run with the source intact to parse comments
#>  
#>  
#> using C compiler: ‘gcc (Ubuntu 13.3.0-6ubuntu2~24.04) 13.3.0’
#> ── Solved rxode2 object ──
#> ── Parameters (value$params): ──
#> # A tibble: 1 × 0
#> ── Initial Conditions (value$inits): ──
#> named numeric(0)
#> ── First part of data (object): ──
#> # A tibble: 9 × 5
#>    time    fx dProb  size  prob
#>   <dbl> <dbl> <dbl> <dbl> <dbl>
#> 1    46 -13.3   108   100   0.5
#> 2    47 -12.8   106   100   0.5
#> 3    48 -12.4   104   100   0.5
#> 4    49 -12.0   102   100   0.5
#> 5    50 -11.6   100   100   0.5
#> 6    51 -11.2    98   100   0.5
#> # ℹ 3 more rows
…
