log likelihood of Cauchy distribution and it's derivatives (from stan) — llikCauchy • rxode2
…
#>   SEXP _mv = PROTECT(_rxGetModelLib("rx_8711d080fd11f3466e2b0dcee8d5ab4b__model_vars"));
#>   if (!Rf_isNull(_mv)){
#>     _rxRmModelLib("rx_8711d080fd11f3466e2b0dcee8d5ab4b__model_vars");
#>   }
#>   UNPROTECT(1);
#> }
#> 
#> using C compiler: ‘gcc (Ubuntu 13.3.0-6ubuntu2~24.04) 13.3.0’
#> ── Solved rxode2 object ──
#> ── Parameters (value$params): ──
#> # A tibble: 1 × 0
#> ── Initial Conditions (value$inits): ──
#> named numeric(0)
#> ── First part of data (object): ──
#> # A tibble: 10 × 6
#>     time    fx dLocation dScale location scale
#>    <dbl> <dbl>     <dbl>  <dbl>    <dbl> <dbl>
#> 1 -3     -3.45    -0.6    0.8          0     1
#> 2 -2.33  -3.01    -0.724  0.690        0     1
#> 3 -1.67  -2.47    -0.882  0.471        0     1
#> 4 -1     -1.84    -1      0            0     1
#> 5 -0.333 -1.25    -0.6   -0.8          0     1
#> 6  0.333 -1.25     0.600 -0.8          0     1
#> # ℹ 4 more rows
…
