log likelihood and derivatives for F distribution — llikF • rxode2
…
#>   SEXP _mv = PROTECT(_rxGetModelLib("rx_925ff828bd7406d6d9c2ce4a75c951ba__model_vars"));
#>   if (!Rf_isNull(_mv)){
#>     _rxRmModelLib("rx_925ff828bd7406d6d9c2ce4a75c951ba__model_vars");
#>   }
#>   UNPROTECT(1);
#> }
#> 
#> using C compiler: ‘gcc (Ubuntu 13.3.0-6ubuntu2~24.04) 13.3.0’
#> ── Solved rxode2 object ──
#> ── Parameters (value$params): ──
#> # A tibble: 1 × 0
#> ── Initial Conditions (value$inits): ──
#> named numeric(0)
#> ── First part of data (object): ──
#> # A tibble: 100 × 6
#>     time     fx   dMean     dSd   df1   df2
#>    <dbl>  <dbl>   <dbl>   <dbl> <dbl> <dbl>
#> 1 0.001   2.48  -2.32   0.00983     1     5
#> 2 0.0515  0.484 -0.380  0.0108      1     5
#> 3 0.102   0.112 -0.0731 0.0117      1     5
#> 4 0.152  -0.118  0.0943 0.0125      1     5
#> 5 0.203  -0.291  0.204  0.0133      1     5
#> 6 0.253  -0.431  0.283  0.0140      1     5
#> # ℹ 94 more rows
…
