Calculate the log likelihood of the negative binomial function (and its derivatives) — llikNbinomMu • rxode2
…
#>   SEXP _mv = PROTECT(_rxGetModelLib("rx_5ee0cd88ae5461dd482ad497ead9b818__model_vars"));
#>   if (!Rf_isNull(_mv)){
#>     _rxRmModelLib("rx_5ee0cd88ae5461dd482ad497ead9b818__model_vars");
#>   }
#>   UNPROTECT(1);
#> }
#> 
#> using C compiler: ‘gcc (Ubuntu 13.3.0-6ubuntu2~24.04) 13.3.0’
#> ── Solved rxode2 object ──
#> ── Parameters (value$params): ──
#> # A tibble: 1 × 0
#> ── Initial Conditions (value$inits): ──
#> named numeric(0)
#> ── First part of data (object): ──
#> # A tibble: 9 × 5
#>    time    fx dProb  size    mu
#>   <dbl> <dbl> <dbl> <dbl> <dbl>
#> 1    46 -3.33 0.107   100    40
#> 2    47 -3.45 0.125   100    40
#> 3    48 -3.58 0.143   100    40
#> 4    49 -3.73 0.161   100    40
#> 5    50 -3.89 0.179   100    40
#> 6    51 -4.06 0.196   100    40
#> # ℹ 3 more rows
…
