Calculate the log likelihood of the binomial function (and its derivatives) — llikBinom • rxode2
…
#>   SEXP _mv = PROTECT(_rxGetModelLib("rx_ab17931ce35cd48dce5b22def5a99928__model_vars"));
#>   if (!Rf_isNull(_mv)){
#>     _rxRmModelLib("rx_ab17931ce35cd48dce5b22def5a99928__model_vars");
#>   }
#>   UNPROTECT(1);
#> }
#> 
#> using C compiler: ‘gcc (Ubuntu 13.3.0-6ubuntu2~24.04) 13.3.0’
#> ── Solved rxode2 object ──
#> ── Parameters (value$params): ──
#> # A tibble: 1 × 0
#> ── Initial Conditions (value$inits): ──
#> named numeric(0)
#> ── First part of data (object): ──
#> # A tibble: 9 × 5
#>    time    fx dProb  size  prob
#>   <dbl> <dbl> <dbl> <dbl> <dbl>
#> 1    46 -2.85   -16   100   0.5
#> 2    47 -2.71   -12   100   0.5
#> 3    48 -2.61    -8   100   0.5
#> 4    49 -2.55    -4   100   0.5
#> 5    50 -2.53     0   100   0.5
#> 6    51 -2.55     4   100   0.5
#> # ℹ 3 more rows
…
