Log likelihood for normal distribution — llikNorm • rxode2
…
#>   if (!Rf_isNull(_mv)){
#>     _rxRmModelLib("rx_2caa923c2e1313664984f5d665cc9cff__model_vars");
#>   }
#>   UNPROTECT(1);
#> }
#> 
#> using C compiler: ‘gcc (Ubuntu 13.3.0-6ubuntu2~24.04) 13.3.0’
ret
#> ── Solved rxode2 object ──
#> ── Parameters (value$params): ──
#> # A tibble: 1 × 0
#> ── Initial Conditions (value$inits): ──
#> named numeric(0)
#> ── First part of data (object): ──
#> # A tibble: 10 × 6
#>     time     fx  dMean    dSd    mu sigma
#>    <dbl>  <dbl>  <dbl>  <dbl> <dbl> <dbl>
#> 1 -3     -5.42  -3      8         0     1
#> 2 -2.33  -3.64  -2.33   4.44      0     1
#> 3 -1.67  -2.31  -1.67   1.78      0     1
#> 4 -1     -1.42  -1      0         0     1
#> 5 -0.333 -0.974 -0.333 -0.889     0     1
#> 6  0.333 -0.974  0.333 -0.889     0     1
#> # ℹ 4 more rows
…
