log likelihood and derivatives for Geom distribution — llikGeom • rxode2
…
rxSolve(model, et)
#>  
#>  
#> ℹ parameter labels from comments are typically ignored in non-interactive mode
#> ℹ Need to run with the source intact to parse comments
#>  
#>  
#> ── Solved rxode2 object ──
#> ── Parameters (value$params): ──
#> # A tibble: 1 × 0
#> ── Initial Conditions (value$inits): ──
#> named numeric(0)
#> ── First part of data (object): ──
#> # A tibble: 10 × 4
#>    time    fx dProb  prob
#>   <dbl> <dbl> <dbl> <dbl>
#> 1     1 -1.83  3.75   0.2
#> 2     2 -2.06  2.5    0.2
#> 3     3 -2.28  1.25   0.2
#> 4     4 -2.50  0      0.2
#> 5     5 -2.73 -1.25   0.2
#> 6     6 -2.95 -2.5    0.2
#> # ℹ 4 more rows
…
