…
rxSolve(model, et)
#>  
#>  
#> ℹ parameter labels from comments are typically ignored in non-interactive mode
#> ℹ Need to run with the source intact to parse comments
#>  
#>  
#> using C compiler: ‘gcc (Ubuntu 13.3.0-6ubuntu2~24.04) 13.3.0’
#> ── Solved rxode2 object ──
#> ── Parameters (value$params): ──
#> # A tibble: 1 × 0
#> ── Initial Conditions (value$inits): ──
#> named numeric(0)
#> ── First part of data (object): ──
#> # A tibble: 10 × 6
#>    time      fx dShape  dRate  rate shape
#>   <dbl>   <dbl>  <dbl>  <dbl> <dbl> <dbl>
#> 1 0.001  2.29   -4.03   0.099    10     1
#> 2 0.112  1.18    0.691 -0.012    10     1
#> 3 0.223  0.0726  1.38  -0.123    10     1
#> 4 0.334 -1.04    1.78  -0.234    10     1
#> 5 0.445 -2.15    2.07  -0.345    10     1
#> 6 0.556 -3.26    2.29  -0.456    10     1
#> # ℹ 4 more rows
…
