…
rxSolve(model, et)
#>  
#>  
#> ℹ parameter labels from comments are typically ignored in non-interactive mode
#> ℹ Need to run with the source intact to parse comments
#>  
#>  
#> using C compiler: ‘gcc (Ubuntu 13.3.0-6ubuntu2~24.04) 13.3.0’
#> ── Solved rxode2 object ──
#> ── Parameters (value$params): ──
#> # A tibble: 1 × 0
#> ── Initial Conditions (value$inits): ──
#> named numeric(0)
#> ── First part of data (object): ──
#> # A tibble: 10 × 8
#>     time    fx       dDf  dMean    dSd    nu  mean    sd
#>    <dbl> <dbl>     <dbl>  <dbl>  <dbl> <dbl> <dbl> <dbl>
#> 1 -3     -4.26 -0.0869   -1.5    3.5       7     0     1
#> 2 -2.33  -3.26 -0.0326   -1.5    2.5       7     0     1
#> 3 -1.67  -2.29  0.000289 -1.36   1.27      7     0     1
#> 4 -1     -1.49  0.00971  -1      0         7     0     1
#> 5 -0.333 -1.02  0.00611  -0.375 -0.875     7     0     1
#> 6  0.333 -1.02  0.00611   0.375 -0.875     7     0     1
#> # ℹ 4 more rows
…
