log-likelihood for the Poisson distribution — llikPois • rxode2
…
#>   SEXP _mv = PROTECT(_rxGetModelLib("rx_6cb39a2d79ab9aa20622e79fc5d5998a__model_vars"));
#>   if (!Rf_isNull(_mv)){
#>     _rxRmModelLib("rx_6cb39a2d79ab9aa20622e79fc5d5998a__model_vars");
#>   }
#>   UNPROTECT(1);
#> }
#> 
#> using C compiler: ‘gcc (Ubuntu 13.3.0-6ubuntu2~24.04) 13.3.0’
#> ── Solved rxode2 object ──
#> ── Parameters (value$params): ──
#> # A tibble: 1 × 0
#> ── Initial Conditions (value$inits): ──
#> named numeric(0)
#> ── First part of data (object): ──
#> # A tibble: 11 × 4
#>    time    fx dLambda lambda
#>   <dbl> <dbl>   <dbl>  <dbl>
#> 1     0 -0.5       -1    0.5
#> 2     1 -1.19       1    0.5
#> 3     2 -2.58       3    0.5
#> 4     3 -4.37       5    0.5
#> 5     4 -6.45       7    0.5
#> 6     5 -8.75       9    0.5
#> # ℹ 5 more rows
…
