Calculate the log likelihood of the binomial function (and its derivatives) — llikBeta • rxode2
…
#>   SEXP _mv = PROTECT(_rxGetModelLib("rx_ed69a861a9ee57524f69f40f16a8beef__model_vars"));
#>   if (!Rf_isNull(_mv)){
#>     _rxRmModelLib("rx_ed69a861a9ee57524f69f40f16a8beef__model_vars");
#>   }
#>   UNPROTECT(1);
#> }
#> 
#> using C compiler: ‘gcc (Ubuntu 13.3.0-6ubuntu2~24.04) 13.3.0’
#> ── Solved rxode2 object ──
#> ── Parameters (value$params): ──
#> # A tibble: 1 × 0
#> ── Initial Conditions (value$inits): ──
#> named numeric(0)
#> ── First part of data (object): ──
#> # A tibble: 21 × 6
#>     time     fx dShape1 dShape2 shape1 shape2
#>    <dbl>  <dbl>   <dbl>   <dbl>  <dbl>  <dbl>
#> 1 0.0001 4.15   -6.82    0.386     0.5    1.5
#> 2 0.0501 1.02   -0.608   0.335     0.5    1.5
#> 3 0.100  0.647   0.0845  0.281     0.5    1.5
#> 4 0.150  0.415   0.490   0.224     0.5    1.5
#> 5 0.200  0.241   0.777   0.163     0.5    1.5
#> 6 0.250  0.0976  1.00    0.0985    0.5    1.5
#> # ℹ 15 more rows
…
