…
rxSolve(model, et)
#>  
#>  
#> ℹ parameter labels from comments are typically ignored in non-interactive mode
#> ℹ Need to run with the source intact to parse comments
#>  
#>  
#> ── Solved rxode2 object ──
#> ── Parameters (value$params): ──
#> # A tibble: 1 × 0
#> ── Initial Conditions (value$inits): ──
#> named numeric(0)
#> ── First part of data (object): ──
#> # A tibble: 10 × 6
#>    time    fx dShape  dScale shape scale
#>   <dbl> <dbl>  <dbl>   <dbl> <dbl> <dbl>
#> 1 0.001 -2.30  -8.21 -0.1000     1    10
#> 2 0.112 -2.31  -3.44 -0.0989     1    10
#> 3 0.223 -2.32  -2.72 -0.0978     1    10
#> 4 0.334 -2.34  -2.29 -0.0967     1    10
#> 5 0.445 -2.35  -1.97 -0.0956     1    10
#> 6 0.556 -2.36  -1.73 -0.0944     1    10
#> # ℹ 4 more rows
…
