…
e <- et(1:10) %>% as.data.frame()

e$x <- 1:10
e$y <- 21:30

rxSolve(f, e)
#> Warning: not thread safe method, using 1 core
#> ── Solved rxode2 object ──
#> ── Parameters (value$params): ──
#> # A tibble: 1 × 0
#> ── Initial Conditions (value$inits): ──
#> named numeric(0)
#> ── First part of data (object): ──
#> # A tibble: 10 × 4
#>    time     z     x     y
#>   <dbl> <dbl> <dbl> <dbl>
#> 1     1    22     1    21
#> 2     2    24     2    22
#> 3     3    26     3    23
#> 4     4    28     4    24
#> 5     5    30     5    25
#> 6     6    32     6    26
#> # ℹ 4 more rows
…
rxSolve(f, e)
#> compiled with R user function 'gg'; now there is a clashing C user function
#> triggered a recompile to use the C user function (they are always preferred)
#>  
#>  
#> ── Solved rxode2 object ──
#> ── Parameters (value$params): ──
#> # A tibble: 1 × 0
#> ── Initial Conditions (value$inits): ──
#> named numeric(0)
#> ── First part of data (object): ──
#> # A tibble: 10 × 4
#>    time     z     x     y
#>   <dbl> <dbl> <dbl> <dbl>
#> 1     1    22     1    21
#> 2     2    24     2    22
#> 3     3    26     3    23
#> 4     4    28     4    24
#> 5     5    30     5    25
#> 6     6    32     6    26
#> # ℹ 4 more rows

# to stop the recompile simply reassign the function
f <- rxode2(f)
#>  
#>  

rxSolve(f, e)
#> ── Solved rxode2 object ──
#> ── Parameters (value$params): ──
#> # A tibble: 1 × 0
#> ── Initial Conditions (value$inits): ──
#> named numeric(0)
#> ── First part of data (object): ──
#> # A tibble: 10 × 4
#>    time     z     x     y
#>   <dbl> <dbl> <dbl> <dbl>
#> 1     1    22     1    21
#> 2     2    24     2    22
#> 3     3    26     3    23
#> 4     4    28     4    24
#> 5     5    30     5    25
#> 6     6    32     6    26
#> # ℹ 4 more rows
…
