Create an ODE-based model specification — rxode2 • rxode2
…
# This returns a matrix.  Note that you can also
# solve using name initial values. For example:

inits <- c(eff = 1)
qd.cp <- solve(m1, theta, events = qd, inits)
print(qd.cp)
#> ── Solved rxode2 object ──
#> ── Parameters ($params): ──
#>      V2      V3      KA      CL       Q     Kin    Kout    EC50 
#>  40.200 297.000   0.291  18.600  10.500   1.000   1.000 200.000 
#> ── Initial Conditions ($inits): ──
#> depot centr  peri   eff 
#>     0     0     0     1 
#> ── First part of data (object): ──
#> # A tibble: 37 × 7
#>   time    C2    C3  depot centr  peri   eff
#>    [h] <dbl> <dbl>  <dbl> <dbl> <dbl> <dbl>
#> 1    0   0   0     10000     0     0   1   
#> 2    1  44.0 0.911  7475. 1769.  271.  1.08
#> 3    2  54.5 2.65   5588. 2191.  787.  1.18
#> 4    3  51.7 4.42   4177. 2076. 1314.  1.23
#> 5    4  44.4 5.94   3122. 1784. 1765.  1.23
#> 6    5  36.5 7.14   2334. 1466. 2120.  1.21
#> # … with 31 more rows
…
 qd.cp <-solve(u, qd)

 print(qd.cp)
#> ── Solved rxode2 object ──
#> ── Parameters ($params): ──
#>      KA      CL      V2       Q      V3     Kin    Kout    EC50 
#>   0.291  18.600  40.200  10.500 297.000   1.000   1.000 200.000 
#> ── Initial Conditions ($inits): ──
#> depot centr  peri   eff 
#>     0     0     0     1 
#> ── First part of data (object): ──
#> # A tibble: 37 × 7
#>   time    C2    C3  depot centr  peri   eff
#>    [h] <dbl> <dbl>  <dbl> <dbl> <dbl> <dbl>
#> 1    0   0   0     10000     0     0   1   
#> 2    1  44.0 0.911  7475. 1769.  271.  1.08
#> 3    2  54.5 2.65   5588. 2191.  787.  1.18
#> 4    3  51.7 4.42   4177. 2076. 1314.  1.23
#> 5    4  44.4 5.94   3122. 1784. 1765.  1.23
#> 6    5  36.5 7.14   2334. 1466. 2120.  1.21
#> # … with 31 more rows
…
