Convert event data to trial duration data A helper function to create a custom event table. The observation time will start from the first event time (baseline) and end at trial duration. The interval
…
    Omar Elashkar

    Examples

 # Create event table with unique time for each ID
 ev = et(data.frame(id = rep(1:10, 3),  time = runif(min = 10, max = 20, n = 30)))

 # select the duration and spacing interval (assuming time is in years)
 toTrialDuration(ev, trialEnd = 1.5, interval = 0.2)
#> ── EventTable with 80 records ──
#> 0 dosing records (see value$get.dosing(); add with add.dosing or et)
#> 80 observation times (see value$get.sampling(); add with add.sampling or et)
#> ── First part of value: ──
#> # A tibble: 80 × 4
#>       id  time   amt evid         
#>    <int> <dbl> <dbl> <evid>       
#>  1     1  10.4    NA 0:Observation
#>  2     1  10.6    NA 0:Observation
#>  3     1  10.8    NA 0:Observation
#>  4     1  11.0    NA 0:Observation
#>  5     1  11.2    NA 0:Observation
#>  6     1  11.4    NA 0:Observation
#>  7     1  11.6    NA 0:Observation
#>  8     1  11.8    NA 0:Observation
#>  9     2  16.2    NA 0:Observation
#> 10     2  16.4    NA 0:Observation
#> # ℹ 70 more rows
…
