Nesting levels in rxode2 • rxode2
…
#> unhandled error message: EE:[lsoda] 70000 steps taken before reaching tout
#>  @(lsoda.c:750

#> Warning: some ID(s) could not solve the ODEs correctly; These values are
#> replaced with 'NA'

print(s)

#> -- Solved rxode2 object --
#> -- Parameters ($params): --
#> # A tibble: 8,000 x 24
#>    sim.id id    inv.Cl~1 inv.C~2 inv.K~3 inv.K~4 eye.C~5 eye.C~6 eye.K~7 eye.K~8
#>     <int> <fct>    <dbl>   <dbl>   <dbl>   <dbl>   <dbl>   <dbl>   <dbl>   <dbl>
#>  1      1 1        0.113   0.125  -0.327 -0.0149  0.0493 -0.562   0.0252  0.0720
#>  2      1 2        0.113   0.125  -0.327 -0.0149  0.0112  0.277  -0.391   0.0586
#>  3      1 3        0.113   0.125  -0.327 -0.0149 -0.124   0.0840  0.163  -0.0169
#>  4      1 4        0.113   0.125  -0.327 -0.0149  0.272   0.0732 -0.0842 -0.408 
#>  5      1 5        0.113   0.125  -0.327 -0.0149  0.201  -0.135   0.0388  0.229 
#>  6      1 6        0.113   0.125  -0.327 -0.0149  0.0529 -0.176   0.101   0.396 
#>  7      1 7        0.113   0.125  -0.327 -0.0149 -0.362  -0.372  -0.0187  0.150 
#>  8      1 8        0.113   0.125  -0.327 -0.0149 -0.261  -0.107   0.120   0.241 
#>  9      1 9        0.113   0.125  -0.327 -0.0149  0.340   0.300  -0.0277 -0.250 
#> 10      1 10       0.113   0.125  -0.327 -0.0149  0.0960  0.240  -0.196   0.0365
#> # ... with 7,990 more rows, 14 more variables: `iov.Cl(occ==1)` <dbl>,
#> #   `iov.Cl(occ==2)` <dbl>, `iov.Ka(occ==1)` <dbl>, `iov.Ka(occ==2)` <dbl>,
#> #   V2 <dbl>, V3 <dbl>, TCl <dbl>, eta.Cl <dbl>, TKA <dbl>, eta.Ka <dbl>,
#> #   Q <dbl>, Kin <dbl>, Kout <dbl>, EC50 <dbl>, and abbreviated variable names
#> #   1: `inv.Cl(inv==1)`, 2: `inv.Cl(inv==2)`, 3: `inv.Ka(inv==1)`,
#> #   4: `inv.Ka(inv==2)`, 5: `eye.Cl(eye==1)`, 6: `eye.Cl(eye==2)`,
#> #   7: `eye.Ka(eye==1)`, 8: `eye.Ka(eye==2)`
#> -- Initial Conditions ($inits): --
#> depot centr  peri   eff 
#>     0     0     0     1 
#> 
#> Simulation with uncertainty in:
#> * parameters ($thetaMat for changes)
#> * omega matrix ($omegaList)
#> 
#> -- First part of data (object): --
#> # A tibble: 976,000 x 21
#>   sim.id    id time inv.Cl inv.Ka  eye.Cl eye.Ka  iov.Cl iov.Ka      C2      C3
#>    <int> <int>  [h]  <dbl>  <dbl>   <dbl>  <dbl>   <dbl>  <dbl>   <dbl>   <dbl>
#> 1      1     1  0    0.113 -0.327  0.0493 0.0252 -0.0575 0.0404  0      0      
#> 2      1     1  0.1  0.113 -0.327 -0.562  0.0720 -0.0575 0.0404  0.0406 0.00442
#> 3      1     1  4    0.113 -0.327  0.0493 0.0252 -0.0575 0.0404 12.9    3.88   
#> 4      1     1  4.1  0.113 -0.327 -0.562  0.0720 -0.0575 0.0404 56.4    4.02   
#> 5      1     1  8    0.113 -0.327  0.0493 0.0252 -0.0575 0.0404 36.1    8.76   
#> 6      1     1  8.1  0.113 -0.327 -0.562  0.0720 -0.0575 0.0404 17.6    8.86   
#> # ... with 975,994 more rows, and 10 more variables: CL <dbl>, KA <dbl>,
#> #   ef0 <dbl>, depot <dbl>, centr <dbl>, peri <dbl>, eff <dbl>, occ <fct>,
#> #   eye <fct>, inv <fct>
…
