…
    #> unhandled error message: EE:[lsoda] 70000 steps taken before reaching tout
    #>  @(lsoda.c:748

    #> Warning: some ID(s) could not solve the ODEs correctly; These values are
    #> replaced with 'NA'

``` r
print(s)
```

    #> -- Solved rxode2 object --
    #> -- Parameters ($params): --
    #> # A tibble: 8,000 x 24
    #>    sim.id id    `inv.Cl(inv==1)` `inv.Cl(inv==2)` `inv.Ka(inv==1)`
    #>     <int> <fct>            <dbl>            <dbl>            <dbl>
    #>  1      1 1              0.00900            0.312           -0.117
    #>  2      1 2              0.00900            0.312           -0.117
    #>  3      1 3              0.00900            0.312           -0.117
    #>  4      1 4              0.00900            0.312           -0.117
    #>  5      1 5              0.00900            0.312           -0.117
    #>  6      1 6              0.00900            0.312           -0.117
    #>  7      1 7              0.00900            0.312           -0.117
    #>  8      1 8              0.00900            0.312           -0.117
    #>  9      1 9              0.00900            0.312           -0.117
    #> 10      1 10             0.00900            0.312           -0.117
    #> # i 7,990 more rows
    #> # i 19 more variables: `inv.Ka(inv==2)` <dbl>, `eye.Cl(eye==1)` <dbl>,
    #> #   `eye.Cl(eye==2)` <dbl>, `eye.Ka(eye==1)` <dbl>, `eye.Ka(eye==2)` <dbl>,
    #> #   `iov.Cl(occ==1)` <dbl>, `iov.Cl(occ==2)` <dbl>, `iov.Ka(occ==1)` <dbl>,
    #> #   `iov.Ka(occ==2)` <dbl>, V2 <dbl>, V3 <dbl>, TCl <dbl>, eta.Cl <dbl>,
    #> #   TKA <dbl>, eta.Ka <dbl>, Q <dbl>, Kin <dbl>, Kout <dbl>, EC50 <dbl>
    #> -- Initial Conditions ($inits): --
    #> depot centr  peri   eff 
    #>     0     0     0     1 
    #> 
    #> Simulation with uncertainty in:
    #> * parameters ($thetaMat for changes)
    #> * omega matrix ($omegaList)
    #> 
    #> -- First part of data (object): --
    #> # A tibble: 976,000 x 21
    #>   sim.id    id time  inv.Cl inv.Ka  eye.Cl eye.Ka iov.Cl iov.Ka    C2      C3
    #>    <int> <int>  [h]   <dbl>  <dbl>   <dbl>  <dbl>  <dbl>  <dbl> <dbl>   <dbl>
    #> 1      1     1  0   0.00900 -0.117 -0.330  0.0792 0.0370 -0.197  0    0      
    #> 2      1     1  0.1 0.00900 -0.117 -0.0547 0.185  0.0370 -0.197  8.12 0.00805
    #> 3      1     1  4   0.00900 -0.117 -0.330  0.0792 0.0370 -0.197 39.9  4.53   
    #> 4      1     1  4.1 0.00900 -0.117 -0.0547 0.185  0.0370 -0.197 20.0  4.64   
    #> 5      1     1  8   0.00900 -0.117 -0.330  0.0792 0.0370 -0.197  6.55 7.47   
    #> 6      1     1  8.1 0.00900 -0.117 -0.0547 0.185  0.0370 -0.197 18.2  7.51   
    #> # i 975,994 more rows
    #> # i 10 more variables: CL <dbl>, KA <dbl>, ef0 <dbl>, depot <dbl>, centr <dbl>,
    #> #   peri <dbl>, eff <dbl>, occ <fct>, eye <fct>, inv <fct>
…
