rxode2 in a pipeline • rxode2
…
pars <- rxInits(r)
pars <- pars[regexpr("(prop|eta)",names(pars)) == -1]
print(pars)
#>           k        tkde        tkpq       tkqpp    tlambdap      tgamma 
#>    1.00e+02    2.40e-01    2.95e-02    3.10e-03    1.21e-01    7.29e-01 
#>    tdeltaqp        tpt0         tq0 rxerr.pstar 
#>    8.67e-03    7.13e+00    4.12e+01    1.00e+00
## This is the exported method for simulation of Theta/Omega internally in rxode2
df <- rxSimThetaOmega(params=pars, omega=omega,dfSub=760,
                      thetaMat=thetaMat, thetaLower=0, nSub=60,nStud=60) %>%
    filter(tkde > tlambdap) %>% as_tibble()
## You could also simulate more and bind them together to a data frame.
print(df)
#> # A tibble: 2,100 × 17
#>        k  tkde   tkpq tkqpp tlambdap tgamma tdeltaqp  tpt0   tq0 rxerr.pstar
#>    <dbl> <dbl>  <dbl> <dbl>    <dbl>  <dbl>    <dbl> <dbl> <dbl>       <dbl>
#>  1   100 0.468 0.0295 0.805    0.288  0.980    0.256  8.54  41.4           1
#>  2   100 0.468 0.0295 0.805    0.288  0.980    0.256  8.54  41.4           1
#>  3   100 0.468 0.0295 0.805    0.288  0.980    0.256  8.54  41.4           1
#>  4   100 0.468 0.0295 0.805    0.288  0.980    0.256  8.54  41.4           1
#>  5   100 0.468 0.0295 0.805    0.288  0.980    0.256  8.54  41.4           1
#>  6   100 0.468 0.0295 0.805    0.288  0.980    0.256  8.54  41.4           1
#>  7   100 0.468 0.0295 0.805    0.288  0.980    0.256  8.54  41.4           1
#>  8   100 0.468 0.0295 0.805    0.288  0.980    0.256  8.54  41.4           1
#>  9   100 0.468 0.0295 0.805    0.288  0.980    0.256  8.54  41.4           1
#> 10   100 0.468 0.0295 0.805    0.288  0.980    0.256  8.54  41.4           1
#> # ℹ 2,090 more rows
#> # ℹ 7 more variables: eta.pt0 <dbl>, eta.q0 <dbl>, eta.lambdap <dbl>,
#> #   eta.kqp <dbl>, eta.kqpp <dbl>, eta.deltaqp <dbl>, eta.tkde <dbl>
…
