…
## Now solve
x <- predict(mod1, ev)

x
#> -- Solved rxode2 object --
#> -- Parameters (x$params): --
#>      KA      CL      V2       Q      V3     Kin    Kout    EC50 
#>   0.294  18.600  40.200  10.500 297.000   1.000   1.000 200.000 
#> -- Initial Conditions (x$inits): --
#> depot centr  peri   eff 
#>     0     0     0     1 
#> -- First part of data (object): --
#> # A tibble: 241 x 7
#>   time    C2    C3  depot centr  peri   eff
#>    [h] <dbl> <dbl>  <dbl> <dbl> <dbl> <dbl>
#> 1    0   0   0     10000     0     0   1   
#> 2    1  44.4 0.920  7453. 1784.  273.  1.08
#> 3    2  54.9 2.67   5554. 2206.  794.  1.18
#> 4    3  51.9 4.46   4140. 2087. 1324.  1.23
#> 5    4  44.5 5.98   3085. 1789. 1776.  1.23
#> 6    5  36.5 7.18   2299. 1467. 2132.  1.21
#> # i 235 more rows
```
…
First we need to recreate the original solved system:

``` r
x <- mod1 %>% solve(ev)
print(x)
#> -- Solved rxode2 object --
#> -- Parameters ($params): --
#>      KA      CL      V2       Q      V3     Kin    Kout    EC50 
#>   0.294  18.600  40.200  10.500 297.000   1.000   1.000 200.000 
#> -- Initial Conditions ($inits): --
#> depot centr  peri   eff 
#>     0     0     0     1 
#> -- First part of data (object): --
#> # A tibble: 241 x 7
#>   time    C2    C3  depot centr  peri   eff
#>    [h] <dbl> <dbl>  <dbl> <dbl> <dbl> <dbl>
#> 1    0   0   0     10000     0     0   1   
#> 2    1  44.4 0.920  7453. 1784.  273.  1.08
#> 3    2  54.9 2.67   5554. 2206.  794.  1.18
#> 4    3  51.9 4.46   4140. 2087. 1324.  1.23
#> 5    4  44.5 5.98   3085. 1789. 1776.  1.23
#> 6    5  36.5 7.18   2299. 1467. 2132.  1.21
#> # i 235 more rows
```
…
You can also change the sampling times easily by this method by changing
`t` or `time`. For example:

``` r
x$t <- seq(0,5,length.out=20)
print(x)
#> -- Solved rxode2 object --
#> -- Parameters ($params): --
#>      KA      CL      V2       Q      V3     Kin    Kout    EC50 
#>   0.294  18.600  40.200  10.500 297.000   1.000   1.000 200.000 
#> -- Initial Conditions ($inits): --
#> depot centr  peri   eff 
#>     0     0     0     1 
#> -- First part of data (object): --
#> # A tibble: 20 x 7
#>    time    C2     C3  depot centr  peri   eff
#>     [h] <dbl>  <dbl>  <dbl> <dbl> <dbl> <dbl>
#> 1 0       0   0      10000     0    0    1   
#> 2 0.263  16.8 0.0817  9255.  677.  24.3  1.01
#> 3 0.526  29.5 0.299   8566. 1187.  88.7  1.03
#> 4 0.789  38.9 0.615   7929. 1562. 183.   1.06
#> 5 1.05   45.5 1.00    7338. 1830. 298.   1.09
#> 6 1.32   50.1 1.44    6792. 2013. 427.   1.12
#> # i 14 more rows
…
And you may change it by assigning it to a new value.

``` r
x$KA <- 1
print(x)
#> -- Solved rxode2 object --
#> -- Parameters ($params): --
#>    KA    CL    V2     Q    V3   Kin  Kout  EC50 
#>   1.0  18.6  40.2  10.5 297.0   1.0   1.0 200.0 
#> -- Initial Conditions ($inits): --
#> depot centr  peri   eff 
#>     0     0     0     1 
#> -- First part of data (object): --
#> # A tibble: 20 x 7
#>    time    C2    C3  depot centr   peri   eff
#>     [h] <dbl> <dbl>  <dbl> <dbl>  <dbl> <dbl>
#> 1 0       0   0     10000     0     0    1   
#> 2 0.263  52.2 0.261  7686. 2098.   77.6  1.03
#> 3 0.526  83.3 0.900  5908. 3348.  267.   1.09
#> 4 0.789  99.8 1.75   4541. 4010.  519.   1.15
#> 5 1.05  106.  2.69   3490. 4273.  800.   1.21
#> 6 1.32  106.  3.66   2683. 4272. 1086.   1.26
#> # i 14 more rows
…
