…
#>  3 3     0.451  1.02  3.45  0.368  0.031  0.058
#>  4 4     0.451  1.02  3.45 -0.277 -0.015 -0.007
#>  5 5     0.451  1.02  3.45 -0.046 -0.155 -0.142
#>  6 6     0.451  1.02  3.45 -0.382  0.367  0.203
#>  7 7     0.451  1.02  3.45 -0.791  0.16   0.047
#>  8 8     0.451  1.02  3.45 -0.181  0.168  0.096
#>  9 9     0.451  1.02  3.45  1.42   0.042  0.012
#> 10 10    0.451  1.02  3.45 -0.738 -0.391 -0.17 
#> 11 11    0.451  1.02  3.45  0.79   0.281  0.146
#> 12 12    0.451  1.02  3.45 -0.527 -0.126 -0.198
#> ── Initial Conditions ($inits): ──
#>  depot center 
#>      0      0 
#> ── First part of data (object): ──
#> # A tibble: 132 × 8
#>      id  time    ka    cl     v    cp   depot center
#>   <int> <dbl> <dbl> <dbl> <dbl> <dbl>   <dbl>  <dbl>
#> 1     1  0     1.74  1.70  29.0  0    320.        0 
#> 2     1  0.25  1.74  1.70  29.0  3.86 207.      112.
#> 3     1  0.57  1.74  1.70  29.0  6.81 118.      198.
#> 4     1  1.12  1.74  1.70  29.0  9.06  45.4     263.
#> 5     1  2.02  1.74  1.70  29.0  9.79   9.45    284.
#> 6     1  3.82  1.74  1.70  29.0  9.10   0.410   264.
#> # ℹ 126 more rows

## Of course the fasest way to solve if you don't care about the rxode2 extra parameters is

solveData <- rxSolve(theo, parsDf, d, returnType="data.frame")
#> ℹ parameter labels from comments are typically ignored in non-interactive mode
#> ℹ Need to run with the source intact to parse comments

## solved data
dplyr::as_tibble(solveData)
#> # A tibble: 132 × 8
#>       id  time    ka    cl     v    cp         depot center
#>    <int> <dbl> <dbl> <dbl> <dbl> <dbl>         <dbl>  <dbl>
#>  1     1  0     1.74  1.70  29.0  0    320.              0 
#>  2     1  0.25  1.74  1.70  29.0  3.86 207.            112.
#>  3     1  0.57  1.74  1.70  29.0  6.81 118.            198.
#>  4     1  1.12  1.74  1.70  29.0  9.06  45.4           263.
#>  5     1  2.02  1.74  1.70  29.0  9.79   9.45          284.
#>  6     1  3.82  1.74  1.70  29.0  9.10   0.410         264.
#>  7     1  5.1   1.74  1.70  29.0  8.46   0.0440        246.
#>  8     1  7.03  1.74  1.70  29.0  7.56   0.00152       219.
#>  9     1  9.05  1.74  1.70  29.0  6.71   0.0000449     195.
#> 10     1 12.1   1.74  1.70  29.0  5.61   0.000000212   163.
#> # ℹ 122 more rows
…
