…
    ## i Need to run with the source intact to parse comments

``` r
print(s1)
```

    ## -- Solved rxode2 object --
    ## -- Parameters ($params): --
    ## mu 
    ##  1 
    ## -- Initial Conditions ($inits): --
    ##  y dy 
    ##  2  0 
    ## -- First part of data (object): --
    ## # A tibble: 200 x 3
    ##     time     y      dy
    ##    <dbl> <dbl>   <dbl>
    ## 1 0       2     0     
    ## 2 0.0503  2.00 -0.0933
    ## 3 0.101   1.99 -0.173 
    ## 4 0.151   1.98 -0.242 
    ## 5 0.201   1.97 -0.302 
    ## 6 0.251   1.95 -0.353 
    ## # i 194 more rows
…
    ## i Need to run with the source intact to parse comments

``` r
print(s2)
```

    ## -- Solved rxode2 object --
    ## -- Parameters ($params): --
    ##   mu 
    ## 1000 
    ## -- Initial Conditions ($inits): --
    ##  y dy 
    ##  2  0 
    ## -- First part of data (object): --
    ## # A tibble: 200 x 3
    ##     time     y        dy
    ##    <dbl> <dbl>     <dbl>
    ## 1 0       2     0       
    ## 2 0.0503  2.00 -0.000667
    ## 3 0.101   2.00 -0.000667
    ## 4 0.151   2.00 -0.000667
    ## 5 0.201   2.00 -0.000667
    ## 6 0.251   2.00 -0.000667
    ## # i 194 more rows
…
