rxode2 Simulation • rxode2
…
print(sim)
#> ── Solved rxode2 object ──
#> ── Parameters ($params): ──
#> # A tibble: 10,000 × 9
#>    sim.id id      tcl crcl.cl  eta.cl    tv    eta.v   tka eta.ka
#>     <int> <fct> <dbl>   <dbl>   <dbl> <dbl>    <dbl> <dbl>  <dbl>
#>  1      1 1      27.0   0.995  0.489   1.45  0.975    4.51 -0.186
#>  2      1 2      27.0   0.995 -0.770   1.45  0.0294   4.51 -0.116
#>  3      1 3      27.0   0.995 -2.13    1.45  0.187    4.51  0.941
#>  4      1 4      27.0   0.995  0.333   1.45 -0.346    4.51 -0.686
#>  5      1 5      27.0   0.995  1.01    1.45  0.978    4.51  1.69 
#>  6      1 6      27.0   0.995 -0.474   1.45  1.06     4.51 -0.641
#>  7      1 7      27.0   0.995 -0.0488  1.45  1.18     4.51  0.395
#>  8      1 8      27.0   0.995  0.267   1.45  0.164    4.51  1.41 
#>  9      1 9      27.0   0.995 -1.19    1.45  1.24     4.51 -0.726
#> 10      1 10     27.0   0.995 -0.163   1.45 -0.00741  4.51 -0.799
#> # ℹ 9,990 more rows
#> ── Initial Conditions ($inits): ──
#>   depot central 
#>       0       0 
#> 
#> Simulation with uncertainty in:
#> • parameters ($thetaMat for changes)
#> • omega matrix ($omegaList)
#> • sigma matrix ($sigmaList)
#> 
#> ── First part of data (object): ──
#> # A tibble: 50,000 × 12
#>   sim.id    id   time    cl     v    ka   ipred    obs   depot central    WT
#>    <int> <int>    [h] <dbl> <dbl> <dbl>   <dbl>  <dbl>   <dbl>   <dbl> <dbl>
#> 1      1     1 0.151   230. 240.   3.74 0.167   1.21   5.68e+1  39.9    62.2
#> 2      1     1 0.568   230. 240.   3.74 0.258   0.700  1.19e+1  61.9    62.2
#> 3      1     1 1.02    230. 240.   3.74 0.198   0.0443 2.18e+0  47.5    62.2
#> 4      1     1 4.49    230. 240.   3.74 0.00753 0.261  5.01e-6   1.80   62.2
#> 5      1     1 6.19    230. 240.   3.74 0.00148 1.21   8.84e-9   0.355  62.2
#> 6      1     2 0.0833  515.  53.3  4.01 0.358   0.620  7.16e+1  19.1    35.7
#> # ℹ 49,994 more rows
#> # ℹ 1 more variable: CLCR <dbl>
…
