rxode2 and mrgsolve: A Feature Comparison • rxode2
…
mod_pred <- rxode2({
  ipre <- 10 * exp(-ke * t)
})

et  <- et(seq(0, 24, length.out = 20))
rxSolve(mod_pred, et, params = c(ke = 0.5))
#> ── Solved rxode2 object ──
#> ── Parameters (x$params): ──
#>  ke 
#> 0.5 
#> ── Initial Conditions (x$inits): ──
#> named numeric(0)
#> ── First part of data (object): ──
#> # A tibble: 20 × 2
#>    time   ipre
#>   <dbl>  <dbl>
#> 1  0    10    
#> 2  1.26  5.32 
#> 3  2.53  2.83 
#> 4  3.79  1.50 
#> 5  5.05  0.800
#> 6  6.32  0.425
#> # ℹ 14 more rows
…
