rxode2 Datasets and Event Types • rxode2
…
A bolus dose is the default dose type and only requires
amt.

ev <- et(timeUnits="hr") |>
    et(amt=10000, ii=12, until=24) |>
    et(seq(0, 24, length.out=100))

ev

#> -- EventTable with 101 records --
#> 1 dosing records (see x$get.dosing(); add with add.dosing or et)
#> 100 observation times (see x$get.sampling(); add with add.sampling or et)
#> multiple doses in `addl` columns, expand with x$expand(); or etExpand(x)
#> -- First part of x: --
#> # A tibble: 101 x 5
#>     time   amt  ii  addl evid         
#>      [h] <dbl> [h] <int> <evid>       
#>  1 0        NA  NA    NA 0:Observation
#>  2 0     10000  12     2 1:Dose (Add) 
#>  3 0.242    NA  NA    NA 0:Observation
#>  4 0.485    NA  NA    NA 0:Observation
#>  5 0.727    NA  NA    NA 0:Observation
#>  6 0.970    NA  NA    NA 0:Observation
#>  7 1.21     NA  NA    NA 0:Observation
#>  8 1.45     NA  NA    NA 0:Observation
#>  9 1.70     NA  NA    NA 0:Observation
#> 10 1.94     NA  NA    NA 0:Observation
#> # i 91 more rows
…
Using dur

ev <- et(timeUnits="hr") |>
    et(amt=10000, ii=12, until=24, dur=8) |>
    et(seq(0, 24, length.out=100))

ev

#> -- EventTable with 101 records --
#> 1 dosing records (see x$get.dosing(); add with add.dosing or et)
#> 100 observation times (see x$get.sampling(); add with add.sampling or et)
#> multiple doses in `addl` columns, expand with x$expand(); or etExpand(x)
#> -- First part of x: --
#> # A tibble: 101 x 6
#>     time   amt  ii  addl evid          dur
#>      [h] <dbl> [h] <int> <evid>        [h]
#>  1 0        NA  NA    NA 0:Observation  NA
#>  2 0     10000  12     2 1:Dose (Add)    8
#>  3 0.242    NA  NA    NA 0:Observation  NA
#>  4 0.485    NA  NA    NA 0:Observation  NA
#>  5 0.727    NA  NA    NA 0:Observation  NA
#>  6 0.970    NA  NA    NA 0:Observation  NA
#>  7 1.21     NA  NA    NA 0:Observation  NA
#>  8 1.45     NA  NA    NA 0:Observation  NA
#>  9 1.70     NA  NA    NA 0:Observation  NA
#> 10 1.94     NA  NA    NA 0:Observation  NA
#> # i 91 more rows
…
Using rate

ev <- et(timeUnits="hr") |>
    et(amt=10000, ii=12, until=24, rate=10000/8) |>
    et(seq(0, 24, length.out=100))

ev

#> -- EventTable with 101 records --
#> 1 dosing records (see x$get.dosing(); add with add.dosing or et)
#> 100 observation times (see x$get.sampling(); add with add.sampling or et)
#> multiple doses in `addl` columns, expand with x$expand(); or etExpand(x)
#> -- First part of x: --
#> # A tibble: 101 x 6
#>     time   amt rate        ii  addl evid         
#>      [h] <dbl> <rate/dur> [h] <int> <evid>       
#>  1 0        NA NA          NA    NA 0:Observation
#>  2 0     10000  1250       12     2 1:Dose (Add) 
#>  3 0.242    NA NA          NA    NA 0:Observation
#>  4 0.485    NA NA          NA    NA 0:Observation
#>  5 0.727    NA NA          NA    NA 0:Observation
#>  6 0.970    NA NA          NA    NA 0:Observation
#>  7 1.21     NA NA          NA    NA 0:Observation
#>  8 1.45     NA NA          NA    NA 0:Observation
#>  9 1.70     NA NA          NA    NA 0:Observation
#> 10 1.94     NA NA          NA    NA 0:Observation
#> # i 91 more rows
…
Model the infusion duration (rate=-2, equivalent to
NONMEM RATE=-2):

ev <- et(timeUnits="hr") |>
    et(amt=10000, ii=12, until=24, rate=-2) |>
    et(seq(0, 24, length.out=100))

ev

#> -- EventTable with 101 records --
#> 1 dosing records (see x$get.dosing(); add with add.dosing or et)
#> 100 observation times (see x$get.sampling(); add with add.sampling or et)
#> multiple doses in `addl` columns, expand with x$expand(); or etExpand(x)
#> -- First part of x: --
#> # A tibble: 101 x 6
#>     time   amt rate        ii  addl evid         
#>      [h] <dbl> <rate/dur> [h] <int> <evid>       
#>  1 0        NA NA          NA    NA 0:Observation
#>  2 0     10000 -2:dur      12     2 1:Dose (Add) 
#>  3 0.242    NA NA          NA    NA 0:Observation
#>  4 0.485    NA NA          NA    NA 0:Observation
#>  5 0.727    NA NA          NA    NA 0:Observation
#>  6 0.970    NA NA          NA    NA 0:Observation
#>  7 1.21     NA NA          NA    NA 0:Observation
#>  8 1.45     NA NA          NA    NA 0:Observation
#>  9 1.70     NA NA          NA    NA 0:Observation
#> 10 1.94     NA NA          NA    NA 0:Observation
#> # i 91 more rows
…
Model the infusion rate (rate=-1, equivalent to NONMEM
RATE=-1):

ev <- et(timeUnits="hr") |>
    et(amt=10000, ii=12, until=24, rate=-1) |>
    et(seq(0, 24, length.out=100))

ev

#> -- EventTable with 101 records --
#> 1 dosing records (see x$get.dosing(); add with add.dosing or et)
#> 100 observation times (see x$get.sampling(); add with add.sampling or et)
#> multiple doses in `addl` columns, expand with x$expand(); or etExpand(x)
#> -- First part of x: --
#> # A tibble: 101 x 6
#>     time   amt rate        ii  addl evid         
#>      [h] <dbl> <rate/dur> [h] <int> <evid>       
#>  1 0        NA NA          NA    NA 0:Observation
#>  2 0     10000 -1:rate     12     2 1:Dose (Add) 
#>  3 0.242    NA NA          NA    NA 0:Observation
#>  4 0.485    NA NA          NA    NA 0:Observation
#>  5 0.727    NA NA          NA    NA 0:Observation
#>  6 0.970    NA NA          NA    NA 0:Observation
#>  7 1.21     NA NA          NA    NA 0:Observation
#>  8 1.45     NA NA          NA    NA 0:Observation
#>  9 1.70     NA NA          NA    NA 0:Observation
#> 10 1.94     NA NA          NA    NA 0:Observation
#> # i 91 more rows
…
Steady-state doses are solved until a constant inter-dose interval
produces a repeating cycle.

ev <- et(timeUnits="hr") |>
    et(amt=10000, ii=12, ss=1) |>
    et(seq(0, 24, length.out=100))

ev

#> -- EventTable with 101 records --
#> 1 dosing records (see x$get.dosing(); add with add.dosing or et)
#> 100 observation times (see x$get.sampling(); add with add.sampling or et)
#> -- First part of x: --
#> # A tibble: 101 x 5
#>     time   amt  ii evid             ss
#>      [h] <dbl> [h] <evid>        <int>
#>  1 0        NA  NA 0:Observation    NA
#>  2 0     10000  12 1:Dose (Add)      1
#>  3 0.242    NA  NA 0:Observation    NA
#>  4 0.485    NA  NA 0:Observation    NA
#>  5 0.727    NA  NA 0:Observation    NA
#>  6 0.970    NA  NA 0:Observation    NA
#>  7 1.21     NA  NA 0:Observation    NA
#>  8 1.45     NA  NA 0:Observation    NA
#>  9 1.70     NA  NA 0:Observation    NA
#> 10 1.94     NA  NA 0:Observation    NA
#> # i 91 more rows
…
ev <- et(timeUnits="hr") |>
    et(amt=10000, ii=12, addl=3) |>
    et(time=6, evid=reset) |>
    et(seq(0, 24, length.out=100))

ev

#> -- EventTable with 102 records --
#> 1 dosing records (see x$get.dosing(); add with add.dosing or et)
#> 101 observation times (see x$get.sampling(); add with add.sampling or et)
#> multiple doses in `addl` columns, expand with x$expand(); or etExpand(x)
#> -- First part of x: --
#> # A tibble: 102 x 5
#>     time   amt  ii  addl evid         
#>      [h] <dbl> [h] <int> <evid>       
#>  1 0        NA  NA    NA 0:Observation
#>  2 0     10000  12     3 1:Dose (Add) 
#>  3 0.242    NA  NA    NA 0:Observation
#>  4 0.485    NA  NA    NA 0:Observation
#>  5 0.727    NA  NA    NA 0:Observation
#>  6 0.970    NA  NA    NA 0:Observation
#>  7 1.21     NA  NA    NA 0:Observation
#>  8 1.45     NA  NA    NA 0:Observation
#>  9 1.70     NA  NA    NA 0:Observation
#> 10 1.94     NA  NA    NA 0:Observation
#> # i 92 more rows
…
ev <- et(timeUnits="hr") |>
    et(amt=10000, ii=12, addl=3) |>
    et(time=6, cmt="-depot", evid=2) |>
    et(seq(0, 24, length.out=100))

ev

#> -- EventTable with 102 records --
#> 1 dosing records (see x$get.dosing(); add with add.dosing or et)
#> 101 observation times (see x$get.sampling(); add with add.sampling or et)
#> multiple doses in `addl` columns, expand with x$expand(); or etExpand(x)
#> -- First part of x: --
#> # A tibble: 102 x 6
#>     time cmt         amt  ii  addl evid         
#>      [h] <chr>     <dbl> [h] <int> <evid>       
#>  1 0     NA           NA  NA    NA 0:Observation
#>  2 0     (default) 10000  12     3 1:Dose (Add) 
#>  3 0.242 NA           NA  NA    NA 0:Observation
#>  4 0.485 NA           NA  NA    NA 0:Observation
#>  5 0.727 NA           NA  NA    NA 0:Observation
#>  6 0.970 NA           NA  NA    NA 0:Observation
#>  7 1.21  NA           NA  NA    NA 0:Observation
#>  8 1.45  NA           NA  NA    NA 0:Observation
#>  9 1.70  NA           NA  NA    NA 0:Observation
#> 10 1.94  NA           NA  NA    NA 0:Observation
#> # i 92 more rows
…
