…
    ## using C compiler: ‘gcc (Ubuntu 13.3.0-6ubuntu2~24.04) 13.3.0’

``` r
cmt1
```

    ## -- Solved rxode2 object --
    ## -- Parameters (x$params): --
    ##  ke 
    ## 0.5 
    ## -- Initial Conditions (x$inits): --
    ## named numeric(0)
    ## -- First part of data (object): --
    ## # A tibble: 50 x 2
    ##    time  ipre
    ##   <dbl> <dbl>
    ## 1 0     10   
    ## 2 0.490  7.83
    ## 3 0.980  6.13
    ## 4 1.47   4.80
    ## 5 1.96   3.75
    ## 6 2.45   2.94
    ## # i 44 more rows
…
    ## Warning: dose to compartment 2 ignored (not in system; 'id=1')

``` r
cmt1
```

    ## -- Solved rxode2 object --
    ## -- Parameters (x$params): --
    ## kel   V 
    ## 0.5 1.0 
    ## -- Initial Conditions (x$inits): --
    ## central 
    ##       0 
    ## -- First part of data (object): --
    ## # A tibble: 50 x 3
    ##    time  ipre central
    ##   <dbl> <dbl>   <dbl>
    ## 1 0         0       0
    ## 2 0.490     0       0
    ## 3 0.980     0       0
    ## 4 1.47      0       0
    ## 5 1.96      0       0
    ## 6 2.45      0       0
    ## # i 44 more rows
…
    ## using C compiler: ‘gcc (Ubuntu 13.3.0-6ubuntu2~24.04) 13.3.0’

``` r
print(x)
```

    ## -- Solved rxode2 object --
    ## -- Parameters ($params): --
    ##      KA      CL      V2       Q      V3     Kin    Kout    EC50 
    ##   0.294  18.600  40.200  10.500 297.000   1.000   1.000 200.000 
    ## -- Initial Conditions ($inits): --
    ##         eff       depot     central peripheral1 
    ##           1           0           0           0 
    ## -- First part of data (object): --
    ## # A tibble: 241 x 6
    ##   time    C2   eff depot central peripheral1
    ##    [h] <dbl> <dbl> <dbl>   <dbl>       <dbl>
    ## 1    0 249.   1        0  10000           0 
    ## 2    1 121.   1.35     0   4877.       1825.
    ## 3    2  60.3  1.38     0   2424.       2659.
    ## 4    3  31.0  1.28     0   1248.       3018.
    ## 5    4  17.0  1.18     0    683.       3152.
    ## 6    5  10.2  1.11     0    411.       3178.
    ## # i 235 more rows
…
    ## i Need to run with the source intact to parse comments

``` r
print(x)
```

    ## -- Solved rxode2 object --
    ## -- Parameters ($params): --
    ##      KA      CL      V2       Q      V3     Kin    Kout    EC50 
    ##   0.294  18.600  40.200  10.500 297.000   1.000   1.000 200.000 
    ## -- Initial Conditions ($inits): --
    ##         eff       depot     central peripheral1 
    ##           2           0           0           0 
    ## -- First part of data (object): --
    ## # A tibble: 241 x 6
    ##   time    C2   eff depot central peripheral1
    ##    [h] <dbl> <dbl> <dbl>   <dbl>       <dbl>
    ## 1    0 249.   2        0  10000           0 
    ## 2    1 121.   1.93     0   4877.       1825.
    ## 3    2  60.3  1.67     0   2424.       2659.
    ## 4    3  31.0  1.41     0   1248.       3018.
    ## 5    4  17.0  1.23     0    683.       3152.
    ## 6    5  10.2  1.13     0    411.       3178.
    ## # i 235 more rows
…
    ## i Need to run with the source intact to parse comments

``` r
print(x)
```

    ## -- Solved rxode2 object --
    ## -- Parameters ($params): --
    ##      KA      CL      V2       Q      V3     Kin    Kout    EC50 
    ##   0.294  18.600  40.200  10.500 297.000   1.000   1.000 200.000 
    ## -- Initial Conditions ($inits): --
    ##         eff       depot     central peripheral1 
    ##           1           0           0           0 
    ## -- First part of data (object): --
    ## # A tibble: 241 x 6
    ##   time    C2   eff depot central peripheral1
    ##    [h] <dbl> <dbl> <dbl>   <dbl>       <dbl>
    ## 1    0 249.   1        0  10000           0 
    ## 2    1 121.   1.35     0   4877.       1825.
    ## 3    2  60.3  1.38     0   2424.       2659.
    ## 4    3  31.0  1.28     0   1248.       3018.
    ## 5    4  17.0  1.18     0    683.       3152.
    ## 6    5  10.2  1.11     0    411.       3178.
    ## # i 235 more rows
…
    ## i Need to run with the source intact to parse comments

``` r
print(x)
```

    ## -- Solved rxode2 object --
    ## -- Parameters ($params): --
    ##    KA    CL    V2     Q    V3   Kin  Kout  EC50 
    ##  10.0  18.6  40.2  10.5 297.0   1.0   1.0 200.0 
    ## -- Initial Conditions ($inits): --
    ##         eff       depot     central peripheral1 
    ##           1           0           0           0 
    ## -- First part of data (object): --
    ## # A tibble: 241 x 6
    ##   time    C2   eff depot central peripheral1
    ##    [h] <dbl> <dbl> <dbl>   <dbl>       <dbl>
    ## 1    0 249.   1        0  10000           0 
    ## 2    1 121.   1.35     0   4877.       1825.
    ## 3    2  60.3  1.38     0   2424.       2659.
    ## 4    3  31.0  1.28     0   1248.       3018.
    ## 5    4  17.0  1.18     0    683.       3152.
    ## 6    5  10.2  1.11     0    411.       3178.
    ## # i 235 more rows
