…
    ## using C compiler: ‘gcc (Ubuntu 13.3.0-6ubuntu2~24.04) 13.3.0’

``` r
print(r1)
```

    ## ── Solved rxode2 object ──
    ## ── Parameters ($params): ──
    ##     TKA     TCL     TV2      TQ     TV3    TKin   TKout   TEC50      Tz     amp 
    ##   0.294  18.600  40.200  10.500 297.000   1.000   1.000 200.000   8.000   0.100 
    ## ── Initial Conditions ($inits): ──
    ##   depot central    peri     eff 
    ##       0       0       0       1 
    ## ── First part of data (object): ──
    ## # A tibble: 400 × 17
    ##      id  time    KA    CL    V2     Q    V3   Kin  Kout  EC50    C2    C3  depot
    ##   <int>   [h] <dbl> <dbl> <dbl> <dbl> <dbl> <dbl> <dbl> <dbl> <dbl> <dbl>  <dbl>
    ## 1     1 0     0.294  18.6  40.2  10.5   297     1     1   200   0   0     10000 
    ## 2     1 0.485 0.294  18.6  40.2  10.5   297     1     1   200  27.8 0.257  8671.
    ## 3     1 0.970 0.294  18.6  40.2  10.5   297     1     1   200  43.7 0.873  7519.
    ## 4     1 1.45  0.294  18.6  40.2  10.5   297     1     1   200  51.7 1.68   6520.
    ## 5     1 1.94  0.294  18.6  40.2  10.5   297     1     1   200  54.7 2.56   5654.
    ## 6     1 2.42  0.294  18.6  40.2  10.5   297     1     1   200  54.5 3.45   4903.
    ## # ℹ 394 more rows
    ## # ℹ 4 more variables: central <dbl>, peri <dbl>, eff <dbl>, WT <dbl>
…
``` r
r1 <- solve(mod4, ev, covsInterpolation="linear")
print(r1)
#> ── Solved rxode2 object ──
#> ── Parameters ($params): ──
#>        TKA        TCL        TV2         TQ        TV3      TKout      TEC50 
#>   0.294000  18.600000  40.200000  10.500000 297.000000   1.000000 200.000000 
#>       TKin         Tz        amp         pi 
#>   1.000000   8.000000   0.100000   3.141593 
#> ── Initial Conditions ($inits): ──
#>   depot central    peri     eff 
#>       0       0       0       1 
#> ── First part of data (object): ──
#> # A tibble: 100 × 17
#>    time    KA    CL    V2     Q    V3  Kout  EC50    C2   Kin    C3  depot
#>     [h] <dbl> <dbl> <dbl> <dbl> <dbl> <dbl> <dbl> <dbl> <dbl> <dbl>  <dbl>
#> 1 0     0.294  18.6  40.2  10.5   297     1   200   0    1.1  0     10000 
#> 2 0.485 0.294  18.6  40.2  10.5   297     1   200  27.8  1.10 0.257  8671.
#> 3 0.970 0.294  18.6  40.2  10.5   297     1   200  43.7  1.10 0.874  7519.
#> 4 1.45  0.294  18.6  40.2  10.5   297     1   200  51.8  1.09 1.68   6520.
#> 5 1.94  0.294  18.6  40.2  10.5   297     1   200  54.8  1.09 2.56   5654.
#> 6 2.42  0.294  18.6  40.2  10.5   297     1   200  54.6  1.08 3.45   4903.
#> # ℹ 94 more rows
#> # ℹ 5 more variables: central <dbl>, peri <dbl>, eff <dbl>, ctime [h], WT <dbl>
```
…
``` r
r1 <- solve(mod4, ev,covsInterpolation="locf")
print(r1)
#> ── Solved rxode2 object ──
#> ── Parameters ($params): ──
#>        TKA        TCL        TV2         TQ        TV3      TKout      TEC50 
#>   0.294000  18.600000  40.200000  10.500000 297.000000   1.000000 200.000000 
#>       TKin         Tz        amp         pi 
#>   1.000000   8.000000   0.100000   3.141593 
#> ── Initial Conditions ($inits): ──
#>   depot central    peri     eff 
#>       0       0       0       1 
#> ── First part of data (object): ──
#> # A tibble: 100 × 17
#>    time    KA    CL    V2     Q    V3  Kout  EC50    C2   Kin    C3  depot
#>     [h] <dbl> <dbl> <dbl> <dbl> <dbl> <dbl> <dbl> <dbl> <dbl> <dbl>  <dbl>
#> 1 0     0.294  18.6  40.2  10.5   297     1   200   0    1.1  0     10000 
#> 2 0.485 0.294  18.6  40.2  10.5   297     1   200  27.8  1.10 0.257  8671.
#> 3 0.970 0.294  18.6  40.2  10.5   297     1   200  43.7  1.10 0.874  7519.
#> 4 1.45  0.294  18.6  40.2  10.5   297     1   200  51.8  1.09 1.68   6520.
#> 5 1.94  0.294  18.6  40.2  10.5   297     1   200  54.8  1.09 2.56   5654.
#> 6 2.42  0.294  18.6  40.2  10.5   297     1   200  54.6  1.08 3.45   4903.
#> # ℹ 94 more rows
#> # ℹ 5 more variables: central <dbl>, peri <dbl>, eff <dbl>, ctime [h], WT <dbl>
```
…
``` r
r1 <- solve(mod4, ev,covsInterpolation="nocb")
print(r1)
#> ── Solved rxode2 object ──
#> ── Parameters ($params): ──
#>        TKA        TCL        TV2         TQ        TV3      TKout      TEC50 
#>   0.294000  18.600000  40.200000  10.500000 297.000000   1.000000 200.000000 
#>       TKin         Tz        amp         pi 
#>   1.000000   8.000000   0.100000   3.141593 
#> ── Initial Conditions ($inits): ──
#>   depot central    peri     eff 
#>       0       0       0       1 
#> ── First part of data (object): ──
#> # A tibble: 100 × 17
#>    time    KA    CL    V2     Q    V3  Kout  EC50    C2   Kin    C3  depot
#>     [h] <dbl> <dbl> <dbl> <dbl> <dbl> <dbl> <dbl> <dbl> <dbl> <dbl>  <dbl>
#> 1 0     0.294  18.6  40.2  10.5   297     1   200   0    1.1  0     10000 
#> 2 0.485 0.294  18.6  40.2  10.5   297     1   200  27.8  1.10 0.257  8671.
#> 3 0.970 0.294  18.6  40.2  10.5   297     1   200  43.7  1.10 0.874  7519.
#> 4 1.45  0.294  18.6  40.2  10.5   297     1   200  51.8  1.09 1.68   6520.
#> 5 1.94  0.294  18.6  40.2  10.5   297     1   200  54.8  1.09 2.56   5654.
#> 6 2.42  0.294  18.6  40.2  10.5   297     1   200  54.6  1.08 3.45   4903.
#> # ℹ 94 more rows
#> # ℹ 5 more variables: central <dbl>, peri <dbl>, eff <dbl>, ctime [h], WT <dbl>
```
…
